runs/detect/exp6/172.16.128.153_01_20220215113153411_TIMING.jpg  384x640 2 umbrellas, 3 surfboards, Done. (0.267s) 
runs/detect/exp6/172.16.128.153_01_20220215114653322_TIMING.jpg  384x640 2 umbrellas, 3 surfboards, Done. (0.247s) 
runs/detect/exp6/172.16.128.153_01_20220215120153196_TIMING.jpg  384x640 1 umbrella, 3 surfboards, 1 chair, Done. (0.244s) 
runs/detect/exp6/172.16.128.153_01_20220215121653269_TIMING.jpg  384x640 2 umbrellas, 3 surfboards, 1 chair, Done. (0.230s) 
runs/detect/exp6/172.16.128.153_01_20220215141653966_TIMING.jpg  384x640 3 surfboards, 1 chair, Done. (0.258s) 
runs/detect/exp6/172.16.128.153_01_20220215143153971_TIMING.jpg  384x640 1 person, 2 umbrellas, 3 surfboards, Done. (0.298s) 
runs/detect/exp6/172.16.128.153_01_20220215144653021_TIMING.jpg  384x640 2 persons, 1 frisbee, 1 surfboard, Done. (0.232s) 
runs/detect/exp6/172.16.128.153_01_20220215150153292_TIMING.jpg  384x640 2 umbrellas, 1 frisbee, 1 surfboard, Done. (0.233s) 
runs/detect/exp6/172.16.128.153_01_20220215151653644_TIMING.jpg  384x640 2 persons, 1 umbrella, 1 surfboard, Done. (0.234s) 
runs/detect/exp6/172.16.128.153_01_20220215153153310_TIMING.jpg  384x640 2 persons, 1 frisbee, 1 surfboard, Done. (0.235s) 
runs/detect/exp6/bus.jpg  640x480 4 persons, 1 bus, 1 fire hydrant, Done. (0.300s) 
runs/detect/exp6/image.png  352x640 5 persons, 3 ties, Done. (0.216s) 
runs/detect/exp6/video.png  320x640 5 persons, Done. (0.199s) 
runs/detect/exp6/zidane.jpg  384x640 3 persons, 2 ties, Done. (0.233s) 
检测开始时间 2022-02-21 20:35:11.589739 
检测结束时间 2022-02-21 20:35:16.316142 
